id,type,text1,text2,text3,notes
diableavionics_pandemonium_rr,SHIP,"On rare occasions auxiliary ships that have earned great distinction in battle are granted the honour of being inducted into the main Rosenritter fleet and carrying the white and red livery usually reserved for Rosenritter-built vessels.

A capital ship that has been developed and used more as a propaganda tool than in a combat role. While its sheer size gives it respectable firepower, it is comparatively inefficient to the use of multiple Maelstrom battlecruisers. However, when used as a demoralization and bombardment platform, nothing else in Diable Avionic's fleet holds a candle to the results obtained from deploying a Pandemonium-class Dreadnought.

While the origin of the design was never conclusively asserted, it can be dated back to approximately one to two centuries after the Paragon blueprint was born. Given the rarity of this class of ship, it is uncommon to see two alike as each blueprint seems to have been somewhat specialized. The only UAC present in Corvus for example seems to have extensive Wanzer accommodations to fill a battlecarrier role, likely in order to capitalize on the shifting favored combat doctrines at the time of the Great Collapse. The flexibility of both roles being filled by one ship is both a blessing and a logistical nightmare, with no proper standard for the unique needs of a ship of this weight class. Protection wise, the Pandemonium is quite simply layers upon layers of reactive armor slabs attached upon the ship's neo-steel framework. Given the size and unsophisticated nature of this protection schema, the Pandemonium can rival the mass of a mid sized station. This tends to be highly troublesome for both parties when the ship desires to dock, as the stations that can accept the ship are few and will likely going to need to schedule an orbital boost assist afterwards.",,,
